A movies recommender system using Flixster data
…
movies= tbl_df(movies.raw)
profiles= tbl_df(profiles.raw)
ratings= tbl_df(ratings.raw)

A quick inspection allowed us to conclude that the profilesview and age variables were the same.
So, we decided to remove the former right away, even before a more in depth exploratory data analysis.

profiles= profiles %>% select(-"profileview")

Below is a summary of the three tablesrespectively movies, profiles, and ratingsas they stood after the preliminary cleaning of the variables.

movies

## # A tibble: 66,730 x 2
##    moviename                                               movieid
##    <chr>                                                     <int>
##  1 $ (Dollars) (The Heist)                                     252
##  2 $5 a Day (Five Dollars a Day)                               253
##  3 $9.99                                                         1
##  4 $windle (Swindle)                                           254
##  5 BBC2 Playhouse Caught on a Train                            255
##  6 Independent Lens  Race to Execution                         256
##  7 Omnibus Song of Summer                                      257
##  8 The American Experience The Battle Over Citizen Kane          2
##  9 38 (38 Home to the Realm) (38 - Vienna Before the Fall)     258
## 10 68                                                            3
## #  with 66,720 more rows

profiles

## # A tibble: 1,002,796 x 6
##    userid gender location memberfor  lastlogin   age
##     <int> <fct>     <int> <date>         <int> <int>
##  1 981904 Male        111 2009-09-01         1    19
##  2 882359 Female      870 2009-10-02       181   108
##  3 921220 Female      993 2009-09-01       124    NA
##  4 798641 Male        250 2009-11-01        40    22
##  5 952904 Female      172 2009-11-01        44    21
##  6    888 Female      157 2009-10-01        39    18
##  7 300293 Male        221 2009-10-02        91    13
##  8 805965 Male        180 2009-07-01         1    NA
##  9 162134 Male        233 2009-09-01        26    NA
## 10 611822 Female      221 2009-06-03        23    32
## #  with 1,002,786 more rows

ratings

## # A tibble: 8,196,077 x 4
##    userid movieid rating date      
##     <int>   <int>  <dbl> <date>    
##  1 882359      81    1.5 2007-10-10
##  2 882359     926    1   2007-10-10
##  3 882359    1349    2   2007-10-10
##  4 882359    2270    1   2007-10-10
##  5 882359    3065    5   2007-12-29
##  6 882359    3522    0.5 2007-11-13
##  7 882359    3583    0.5 2007-11-13
##  8 882359    4216    0.5 2007-10-10
##  9 882359    4871    3.5 2008-07-19
## 10 882359    4917    0.5 2007-11-13
## #  with 8,196,067 more rows
…
sum(apply(flixster, 1, anyNA)) # 0 NAs, 6,131,346 rows
sum(apply(flixster.small, 1, anyNA)) # 0 NAs
sum(apply(flixster.tiny, 1, anyNA)) # 0 NAs

save(flixster, file= "../data/flixster.rdata")
save(flixster.small, file= "../data/flixster.small.rdata")
save(flixster.tiny, file= "../data/flixster.tiny.rdata")

remove(movies, profiles, ratings)

A preview of the flixster tibble is shown below.

flixster

## # A tibble: 6,131,346 x 12
##    userid gender   age memberfor  total.ratings.u mean.ratings.us movieid
##     <int> <fct>  <int> <date>                <int>            <dbl>   <int>
##  1    888 Female    18 2008-07-04                2              0.5   26377
##  2    888 Female    18 2008-07-04                2              0.5   53324
##  3 611822 Female    32 2008-08-13                1              5     53968
##  4  43635 Female    19 2007-06-19                5              4     16969
##  5  43635 Female    19 2007-06-19                5              4     43529
##  6  43635 Female    19 2007-06-19                5              4     46995
##  7  43635 Female    19 2007-06-19                5              4     52351
##  8  43635 Female    19 2007-06-19                5              4     60624
##  9 857015 Male      17 2009-03-02               15              4.8    4174
## 10 857015 Male      17 2009-03-02               15              4.8    7011
## #  with 6,131,336 more rows, and 5 more variables: moviename <chr>,
## #   rating <dbl>, date <date>, mean.ratings.movie <dbl>,
## #   total.ratings.movie <int>
…
